[gd_scene load_steps=3 format=2]

[ext_resource path="res://resources/circle.svg" type="Texture" id=1]

[sub_resource type="CircleShape2D" id=1]

[node name="Victory" type="Area2D"]
modulate = Color( 0, 1, 0, 1 )
monitorable = false
collision_layer = 8

[node name="Sprite" type="Sprite" parent="."]
scale = Vector2( 0.1, 0.1 )
texture = ExtResource( 1 )

[node name="CollisionShape2D" type="CollisionShape2D" parent="."]
shape = SubResource( 1 )
